EESchema Schematic File Version 4
LIBS:irmpv56-cache
EELAYER 26 0
EELAYER END
$Descr A4 11693 8268
encoding utf-8
Sheet 1 1
Title ""
Date ""
Rev ""
Comp ""
Comment1 ""
Comment2 ""
Comment3 ""
Comment4 ""
$EndDescr
$Comp
L Device:Crystal Y1
U 1 1 5C12AC6D
P 3250 2600
F 0 "Y1" V 3250 2650 50  0000 R CNN
F 1 "16MHz" H 3400 2750 50  0000 R CNN
F 2 "Crystal:Crystal_HC49-U_Vertical" H 3250 2600 50  0001 C CNN
F 3 "~" H 3250 2600 50  0001 C CNN
	1    3250 2600
	1    0    0    -1  
$EndComp
$Comp
L Device:C C2
U 1 1 5C12B78B
P 3000 2750
F 0 "C2" H 2900 2850 50  0000 L CNN
F 1 "22pF" H 3050 2650 50  0000 L CNN
F 2 "Capacitor_SMD:C_0805_2012Metric" H 3038 2600 50  0001 C CNN
F 3 "~" H 3000 2750 50  0001 C CNN
	1    3000 2750
	1    0    0    -1  
$EndComp
$Comp
L Device:C C4
U 1 1 5C12B805
P 3500 2750
F 0 "C4" H 3400 2850 50  0000 L CNN
F 1 "22pF" H 3300 2650 50  0000 L CNN
F 2 "Capacitor_SMD:C_0805_2012Metric" H 3538 2600 50  0001 C CNN
F 3 "~" H 3500 2750 50  0001 C CNN
	1    3500 2750
	1    0    0    -1  
$EndComp
Wire Wire Line
	3000 2600 3100 2600
Wire Wire Line
	3000 2600 3000 2400
Wire Wire Line
	3000 2400 3750 2400
Connection ~ 3000 2600
Wire Wire Line
	3750 2600 3500 2600
Wire Wire Line
	3400 2600 3500 2600
Connection ~ 3500 2600
Wire Wire Line
	3000 2900 3250 2900
$Comp
L power:GND #PWR02
U 1 1 5C12BA0E
P 3000 3000
F 0 "#PWR02" H 3000 2750 50  0001 C CNN
F 1 "GND" H 3005 2827 50  0000 C CNN
F 2 "" H 3000 3000 50  0001 C CNN
F 3 "" H 3000 3000 50  0001 C CNN
	1    3000 3000
	1    0    0    -1  
$EndComp
Wire Wire Line
	3000 3000 3000 2900
Connection ~ 3000 2900
$Comp
L Device:R R1
U 1 1 5C12BB25
P 3600 2050
F 0 "R1" H 3400 2150 50  0000 L CNN
F 1 "10k" H 3400 2050 50  0000 L CNN
F 2 "Resistor_SMD:R_1206_3216Metric" V 3530 2050 50  0001 C CNN
F 3 "~" H 3600 2050 50  0001 C CNN
	1    3600 2050
	1    0    0    -1  
$EndComp
Wire Wire Line
	3600 1900 4350 1900
Connection ~ 4350 1900
Wire Wire Line
	3750 2200 3600 2200
NoConn ~ 3750 3000
NoConn ~ 3750 3100
Text Label 5500 2500 2    50   ~ 0
pb3_mosi
Text Label 5500 2600 2    50   ~ 0
pb4_miso
Text Label 5500 2700 2    50   ~ 0
pb5_sck
Text Label 5500 2200 2    50   ~ 0
pb0_ir_in
Text Label 5500 2300 2    50   ~ 0
pb1_ir_out
Text Label 6200 4100 2    50   ~ 0
pd5
Text Label 3350 2200 0    50   ~ 0
reset
Wire Wire Line
	3600 2200 3350 2200
Connection ~ 3600 2200
Text Label 5300 3000 2    50   ~ 0
pc1
Text Label 5300 3100 2    50   ~ 0
pc2
Text Label 5300 3200 2    50   ~ 0
pc3
Wire Wire Line
	4350 4700 4450 4700
$Comp
L power:GND #PWR03
U 1 1 5C12E9B7
P 4350 4800
F 0 "#PWR03" H 4350 4550 50  0001 C CNN
F 1 "GND" H 4355 4627 50  0000 C CNN
F 2 "" H 4350 4800 50  0001 C CNN
F 3 "" H 4350 4800 50  0001 C CNN
	1    4350 4800
	1    0    0    -1  
$EndComp
Wire Wire Line
	4350 4700 4350 4800
$Comp
L Device:C C1
U 1 1 5C12ECC3
P 3000 2050
F 0 "C1" H 2900 2150 50  0000 L CNN
F 1 "100nF" H 2750 1950 50  0000 L CNN
F 2 "Capacitor_SMD:C_1206_3216Metric" H 3038 1900 50  0001 C CNN
F 3 "~" H 3000 2050 50  0001 C CNN
	1    3000 2050
	1    0    0    -1  
$EndComp
Wire Wire Line
	3600 1900 3000 1900
Connection ~ 3600 1900
$Comp
L power:GND #PWR01
U 1 1 5C12F5A2
P 3000 2250
F 0 "#PWR01" H 3000 2000 50  0001 C CNN
F 1 "GND" H 2900 2250 50  0000 C CNN
F 2 "" H 3000 2250 50  0001 C CNN
F 3 "" H 3000 2250 50  0001 C CNN
	1    3000 2250
	1    0    0    -1  
$EndComp
Wire Wire Line
	3000 2250 3000 2200
$Comp
L Device:C C3
U 1 1 5C12F9C6
P 3400 3050
F 0 "C3" V 3350 2950 50  0000 C CNN
F 1 "100nF" V 3550 3050 50  0000 C CNN
F 2 "Capacitor_SMD:C_1206_3216Metric" H 3438 2900 50  0001 C CNN
F 3 "~" H 3400 3050 50  0001 C CNN
	1    3400 3050
	0    1    1    0   
$EndComp
Wire Wire Line
	3250 3050 3250 2900
Connection ~ 3250 2900
Wire Wire Line
	3250 2900 3500 2900
Wire Wire Line
	3550 3050 3550 2850
Wire Wire Line
	3550 2850 3650 2850
Wire Wire Line
	3650 2850 3650 2800
Wire Wire Line
	3650 2800 3750 2800
$Comp
L Device:R R2
U 1 1 5C1305B4
P 6200 4500
F 0 "R2" V 6300 4500 50  0000 C CNN
F 1 "10k" V 6200 4500 50  0000 C CNN
F 2 "Resistor_SMD:R_1206_3216Metric" V 6130 4500 50  0001 C CNN
F 3 "~" H 6200 4500 50  0001 C CNN
	1    6200 4500
	1    0    0    -1  
$EndComp
Text Label 5300 3400 2    50   ~ 0
pc5_scl
Text Label 5300 3300 2    50   ~ 0
pc4_sda
$Comp
L power:PWR_FLAG #FLG0101
U 1 1 5C13721C
P 4350 1800
F 0 "#FLG0101" H 4350 1875 50  0001 C CNN
F 1 "PWR_FLAG" H 4350 1974 50  0000 C CNN
F 2 "" H 4350 1800 50  0001 C CNN
F 3 "~" H 4350 1800 50  0001 C CNN
	1    4350 1800
	1    0    0    -1  
$EndComp
Wire Wire Line
	4350 1800 4350 1900
$Comp
L power:PWR_FLAG #FLG0102
U 1 1 5C137B00
P 3200 1800
F 0 "#FLG0102" H 3200 1875 50  0001 C CNN
F 1 "PWR_FLAG" H 3200 1974 50  0000 C CNN
F 2 "" H 3200 1800 50  0001 C CNN
F 3 "~" H 3200 1800 50  0001 C CNN
	1    3200 1800
	1    0    0    -1  
$EndComp
Wire Wire Line
	3200 1800 3200 2200
Wire Wire Line
	3200 2200 3000 2200
Connection ~ 3000 2200
Text Label 5900 3150 0    50   ~ 0
reset
Wire Wire Line
	5300 3000 4950 3000
Wire Wire Line
	5300 3100 4950 3100
Wire Wire Line
	5300 3200 4950 3200
Wire Wire Line
	4950 3300 5300 3300
Wire Wire Line
	4950 3400 5300 3400
Wire Wire Line
	5300 3500 4950 3500
Wire Wire Line
	4950 3500 4950 3600
Wire Wire Line
	5300 3600 5100 3600
Wire Wire Line
	5100 3600 5100 3700
Wire Wire Line
	5100 3700 4950 3700
NoConn ~ 4950 2900
Connection ~ 4350 4700
Wire Wire Line
	5300 1900 4450 1900
Wire Wire Line
	4350 1900 4450 1900
Connection ~ 4450 1900
$Comp
L MCU_Microchip_ATmega:ATmega8-16AU U1
U 1 1 5C12A938
P 4350 3300
F 0 "U1" H 4350 3400 50  0000 C CNN
F 1 "ATmega8-16AU" H 4300 3300 50  0000 C CNN
F 2 "Package_QFP:TQFP-32_7x7mm_P0.8mm" H 4350 3300 50  0001 C CIN
F 3 "http://ww1.microchip.com/downloads/en/DeviceDoc/atmel-2486-8-bit-avr-microcontroller-atmega8_l_datasheet.pdf" H 4350 3300 50  0001 C CNN
	1    4350 3300
	1    0    0    -1  
$EndComp
$Comp
L Connector_Generic:Conn_01x06 J3
U 1 1 5C16F27E
P 6700 2950
F 0 "J3" H 6650 2550 50  0000 L CNN
F 1 "ISP" V 6800 2850 50  0000 L CNN
F 2 "Connector_PinSocket_2.54mm:PinSocket_1x06_P2.54mm_Vertical" H 6700 2950 50  0001 C CNN
F 3 "~" H 6700 2950 50  0001 C CNN
	1    6700 2950
	1    0    0    -1  
$EndComp
Wire Wire Line
	4950 2200 6500 2200
Wire Wire Line
	4950 2300 6500 2300
Wire Wire Line
	4950 2400 6500 2400
Wire Wire Line
	6300 4700 6200 4700
Connection ~ 4450 4700
Wire Wire Line
	6500 2100 6400 2100
Wire Wire Line
	6400 2100 6400 4300
Wire Wire Line
	4950 4300 6400 4300
Wire Wire Line
	4950 2500 6100 2500
Wire Wire Line
	4950 2600 6000 2600
Wire Wire Line
	4950 2700 5900 2700
Wire Wire Line
	5900 3150 6500 3150
Wire Wire Line
	6200 4650 6200 4700
Connection ~ 6200 4700
Wire Wire Line
	6200 4700 4450 4700
$Comp
L Connector_Generic:Conn_01x09 J2
U 1 1 5C1A29F4
P 6700 2100
F 0 "J2" H 6700 1550 50  0000 C CNN
F 1 "IRMP" V 6800 2100 50  0000 C CNN
F 2 "Connector_PinSocket_2.54mm:PinSocket_1x09_P2.54mm_Vertical" H 6700 2100 50  0001 C CNN
F 3 "~" H 6700 2100 50  0001 C CNN
	1    6700 2100
	1    0    0    1   
$EndComp
Wire Wire Line
	6300 1600 6500 1600
Wire Wire Line
	6500 1600 6500 1700
Wire Wire Line
	4950 4100 6200 4100
Wire Wire Line
	6200 4100 6200 1900
Wire Wire Line
	6250 4200 6250 2000
Wire Wire Line
	6500 1800 6500 1700
Connection ~ 6500 1700
Wire Wire Line
	6500 2000 6250 2000
Wire Wire Line
	6500 1900 6200 1900
Wire Wire Line
	5300 1250 7150 1250
Wire Wire Line
	5300 1250 5300 1900
$Comp
L Connector_Generic:Conn_01x09 J1
U 1 1 5C1B176D
P 5500 3400
F 0 "J1" H 5500 3900 50  0000 L CNN
F 1 "KEYS/SMBUS" V 5600 3200 50  0000 L CNN
F 2 "Connector_PinSocket_2.54mm:PinSocket_1x09_P2.54mm_Vertical" H 5500 3400 50  0001 C CNN
F 3 "~" H 5500 3400 50  0001 C CNN
	1    5500 3400
	1    0    0    -1  
$EndComp
Wire Wire Line
	4950 3800 5200 3800
Wire Wire Line
	5200 3800 5200 3700
Wire Wire Line
	5200 3700 5300 3700
Wire Wire Line
	4950 3900 5300 3900
Wire Wire Line
	5300 3900 5300 3800
Wire Wire Line
	4950 4200 6250 4200
Wire Wire Line
	6200 4100 6200 4350
Connection ~ 6200 4100
Wire Wire Line
	6300 1600 6300 2750
Wire Wire Line
	6500 3250 6500 3400
Wire Wire Line
	6500 3400 7150 3400
Wire Wire Line
	7150 1250 7150 2600
Wire Wire Line
	6500 2500 6500 2600
Wire Wire Line
	6500 2600 7150 2600
Connection ~ 7150 2600
Wire Wire Line
	7150 2600 7150 3400
Wire Wire Line
	6100 2850 6500 2850
Wire Wire Line
	6100 2500 6100 2850
Wire Wire Line
	6000 2950 6500 2950
Wire Wire Line
	6000 2600 6000 2950
Wire Wire Line
	5900 3050 6500 3050
Wire Wire Line
	5900 2700 5900 3050
Wire Wire Line
	6500 2750 6300 2750
Connection ~ 6300 2750
Wire Wire Line
	6300 2750 6300 4700
$Comp
L Device:LED D1
U 1 1 5C1C2F7F
P 7000 3850
F 0 "D1" H 7100 3900 50  0000 C CNN
F 1 "LED" H 6850 3900 50  0000 C CNN
F 2 "LED_SMD:LED_0603_1608Metric" H 7000 3850 50  0001 C CNN
F 3 "~" H 7000 3850 50  0001 C CNN
	1    7000 3850
	-1   0    0    -1  
$EndComp
$Comp
L Device:R R3
U 1 1 5C1C3038
P 7400 3850
F 0 "R3" V 7300 3850 50  0000 C CNN
F 1 "680" V 7400 3850 50  0000 C CNN
F 2 "Resistor_SMD:R_0603_1608Metric" V 7330 3850 50  0001 C CNN
F 3 "~" H 7400 3850 50  0001 C CNN
	1    7400 3850
	0    1    1    0   
$EndComp
Wire Wire Line
	6850 3850 6550 3850
Wire Wire Line
	7150 3850 7250 3850
Wire Wire Line
	7550 4700 6300 4700
Connection ~ 6300 4700
Text Label 6550 3850 0    50   ~ 0
pb3_mosi
Text Label 5300 2400 2    50   ~ 0
pb2
$Comp
L Device:LED D2
U 1 1 5C1C991E
P 7000 4150
F 0 "D2" H 7100 4200 50  0000 C CNN
F 1 "LED" H 6850 4200 50  0000 C CNN
F 2 "LED_SMD:LED_0603_1608Metric" H 7000 4150 50  0001 C CNN
F 3 "~" H 7000 4150 50  0001 C CNN
	1    7000 4150
	-1   0    0    -1  
$EndComp
$Comp
L Device:R R4
U 1 1 5C1C9925
P 7400 4150
F 0 "R4" V 7300 4150 50  0000 C CNN
F 1 "680" V 7400 4150 50  0000 C CNN
F 2 "Resistor_SMD:R_0603_1608Metric" V 7330 4150 50  0001 C CNN
F 3 "~" H 7400 4150 50  0001 C CNN
	1    7400 4150
	0    1    1    0   
$EndComp
Wire Wire Line
	6850 4150 6550 4150
Wire Wire Line
	7150 4150 7250 4150
Text Label 6550 4150 0    50   ~ 0
pb2
Wire Wire Line
	7550 3850 7550 4150
Wire Wire Line
	7550 4150 7550 4700
Connection ~ 7550 4150
$Comp
L Connector_Generic:Conn_01x01 J4
U 1 1 5C1D2B63
P 5500 4000
F 0 "J4" H 5450 4100 50  0000 L CNN
F 1 "PD4" H 5550 4000 50  0000 L CNN
F 2 "Connector_PinSocket_2.54mm:PinSocket_1x01_P2.54mm_Vertical" H 5500 4000 50  0001 C CNN
F 3 "~" H 5500 4000 50  0001 C CNN
	1    5500 4000
	1    0    0    -1  
$EndComp
Wire Wire Line
	4950 4000 5300 4000
Text Label 5300 4000 2    50   ~ 0
pd4
Text Label 5300 3900 2    50   ~ 0
pd3
Text Label 5200 3800 2    50   ~ 0
int0_pd2
Text Label 5300 3600 2    50   ~ 0
tx_pd1
Text Label 5300 3500 2    50   ~ 0
rx_pd0
$EndSCHEMATC
